// Jest Snapshot v1, https://goo.gl/fbAQLP

exports[`Component: Name renders by default 1`] = `
<div
  class=""
>
  <span
    class="sc-bdVaJa bDWFJH"
  />
  <span
    class="sc-bwzfXH uTxCW"
  />
</div>
`;
